indecl_oblcase_gender_sprt - Oblique case gender of indeclinables
…
Comprehension questions

######## check comprehension question stats
comprehension_questions <- comprehension_questions %>%
  rename(RT = Newline., correct = Reading.time)
comprehension_questions$correct <- as.numeric(comprehension_questions$correct)

# 32 is total number of questions
comprehension_questions %>%
  group_by(Results.reception.time, MD5.hash.of.participant.s.IP.address) %>%
  summarise(n_correct = sum(correct), share_correct = sum(correct) / 32) %>%
  arrange(n_correct)

# A tibble: 92 × 4
# Groups:   Results.reception.time [92]
   Results.reception.time MD5.hash.of.participant.s.IP.address n_correct share…¹
                    <int> <chr>                                    <dbl>   <dbl>
 1             1678180237 d49c679192a0a22bec3ec6ead5f37ff3            28   0.875
 2             1678352462 27f3cc7e1a676034e04714d86ec708b9            28   0.875
 3             1678135178 a60868e03d4eaf0c0f3503e2c558f918            29   0.906
 4             1678137776 4a7eafcdbb84d26d0b2964ac0aa528a9            29   0.906
 5             1678381937 b3197739e4b133fc95a88778a770d20b            29   0.906
 6             1678383226 b3197739e4b133fc95a88778a770d20b            29   0.906
 7             1678131799 9c9ec2e33b2d6eb95e71551cbc88b329            30   0.938
 8             1678139741 45f5c1924facb98cc219b7acfe7c7abd            30   0.938
 9             1678180551 f4be9f43c323920ffa418e993ac801c7            30   0.938
10             1678184786 b2c01a1b7c4563b3598ba668ceec99fd            30   0.938
# … with 82 more rows, and abbreviated variable name ¹​share_correct
…
